<svg id="Capa_1" enable-background="new 0 0 512 512" height="512" viewBox="0 0 512 512" width="512" xmlns="http://www.w3.org/2000/svg">
	<g>
		<path d="m372.553 180.865s-1.041 56.403 6.244 75.135c0 0 6.244 17.171 23.415 17.171 7.063 0 11.72-2.737 14.768-6.025 3.298-3.558 9.203-2.226 10.584 2.425 6.507 21.92 12.125 65.018-33.156 88.413h-138.408-138.407c-45.281-23.396-39.663-66.494-33.156-88.414 1.381-4.651 7.286-5.983 10.584-2.425 3.047 3.288 7.705 6.025 14.768 6.025 17.171 0 23.415-17.171 23.415-17.171 7.285-18.732 6.244-75.135 6.244-75.135h233.105z" fill="#ffc250" />
		<g>
			<path d="m422.5 398.57v103.43c0 5.52-4.47 10-10 10h-56.6l-99.89-10-99.91 10h-56.6c-5.53 0-10-4.48-10-10v-103.43c0-28 18.64-52.58 45.6-60.13l84.48-23.65h72.84l84.48 23.65c26.96 7.55 45.6 32.13 45.6 60.13z" fill="#e6f7fe" />
			<path d="m292.423 314.785v81.555c0 2.76-1.096 5.407-3.048 7.358l-26.016 26.016c-4.064 4.064-10.653 4.064-14.717 0l-26.016-26.016c-1.952-1.952-3.048-4.599-3.048-7.358v-81.555l-63.48 17.774v179.441h199.805v-179.441z" fill="#30569f" />
			<path d="m376.9 338.439-9.517-2.665c8.517 10.759 13.495 24.294 13.495 38.75v137.476h31.626c5.523 0 10-4.477 10-10v-103.434c0-28.001-18.64-52.577-45.604-60.127z" fill="#d3effd" />
			<path d="m292.423 314.785v-40.31l-72.846.001v40.309c0 20.116 16.307 36.423 36.423 36.423 20.116 0 36.423-16.307 36.423-36.423z" fill="#f6a96c" />
			<path d="m172.748 100.735v98.862c0 45.979 37.273 83.252 83.252 83.252s83.252-37.273 83.252-83.252v-98.862z" fill="#fed2a4" />
			<path d="m310.114 100.735v98.862c0 41.006-29.655 75.062-68.683 81.955 4.733.836 9.596 1.297 14.569 1.297 45.979 0 83.252-37.273 83.252-83.252v-98.862z" fill="#ffbd86" />
			<path d="m239.35 319.693h33.301v33.301h-33.301z" fill="#dc4955" />
			<path d="m303.726 367.119-31.076-14.125v-33.301l31.076-14.125c6.89-3.132 14.713 1.905 14.713 9.474v42.604c0 7.568-7.823 12.605-14.713 9.473z" fill="#df646e" />
			<path d="m208.274 367.119 31.076-14.125v-33.301l-31.076-14.125c-6.89-3.132-14.713 1.905-14.713 9.474v42.604c0 7.568 7.823 12.605 14.713 9.473z" fill="#df646e" />
			<path d="m260.434 115.705 22.579 23.243c5.351 5.508 12.703 8.616 20.382 8.616 4.161 0 8.009 2.21 10.105 5.804l25.752 44.147v-30.179h33.301v-50.784c0-64.37-52.183-116.552-116.553-116.552-64.37 0-116.553 52.182-116.553 116.553v50.784h33.301v30.179l25.752-44.147c2.097-3.594 5.944-5.804 10.105-5.804 7.679 0 15.031-3.108 20.382-8.616l22.579-23.243c2.428-2.5 6.44-2.5 8.868-.001z" fill="#ffe07d" />
			<path d="m372.553 116.553c0-37.164-17.395-70.263-44.485-91.605 0 30.207-1.522 68.184-21.644 99.52-4.505 7.015-10.442 13.806-16.323 19.788 4.058 2.149 8.614 3.309 13.294 3.309 4.161 0 8.009 2.21 10.105 5.804l25.752 44.147v-30.179h33.301z" fill="#ffd064" />
			<path d="m355.902 197.515h-16.65v-43.707c0-3.448 2.796-6.244 6.244-6.244h10.407c9.196 0 16.65 7.455 16.65 16.65v16.65c0 9.197-7.455 16.651-16.651 16.651z" fill="#ffbd86" />
			<path d="m156.098 197.515h16.65v-43.707c0-3.448-2.796-6.244-6.244-6.244h-10.407c-9.196 0-16.65 7.455-16.65 16.65v16.65c0 9.197 7.455 16.651 16.651 16.651z" fill="#ffbd86" />
			<g fill="#ffe07d">
				<circle cx="286.179" cy="452.683" r="6.244" />
				<circle cx="286.179" cy="480.78" r="6.244" />
			</g>
		</g>
		<path d="m248.641 429.715-.141-.141v82.426h15v-82.427l-.141.141c-4.065 4.065-10.653 4.065-14.718.001z" fill="#26447e" />
	</g>
</svg>
